^C:\USERS\DJINX\DESKTOP\OPENFRAMEWORKS_V0.9.8\EXAMPLES\MATH\PARTICLESEXAMPLE\SRC\DEMOPARTICLE.CPP|C:\USERS\DJINX\DESKTOP\OPENFRAMEWORKS_V0.9.8\EXAMPLES\MATH\PARTICLESEXAMPLE\SRC\MAIN.CPP|C:\USERS\DJINX\DESKTOP\OPENFRAMEWORKS_V0.9.8\EXAMPLES\MATH\PARTICLESEXAMPLE\SRC\OFAPP.CPP
C:\USERS\DJINX\DESKTOP\OPENFRAMEWORKS_V0.9.8\EXAMPLES\MATH\PARTICLESEXAMPLE\OBJ\DEBUG\MAIN.OBJ
C:\USERS\DJINX\DESKTOP\OPENFRAMEWORKS_V0.9.8\EXAMPLES\MATH\PARTICLESEXAMPLE\OBJ\DEBUG\DEMOPARTICLE.OBJ
C:\USERS\DJINX\DESKTOP\OPENFRAMEWORKS_V0.9.8\EXAMPLES\MATH\PARTICLESEXAMPLE\OBJ\DEBUG\OFAPP.OBJ
^C:\USERS\DJINX\DESKTOP\OPENFRAMEWORKS_V0.9.8\EXAMPLES\MATH\PARTICLESEXAMPLE\SRC\MAIN.CPP
C:\USERS\DJINX\DESKTOP\OPENFRAMEWORKS_V0.9.8\EXAMPLES\MATH\PARTICLESEXAMPLE\OBJ\DEBUG\VC140.PDB
^C:\USERS\DJINX\DESKTOP\OPENFRAMEWORKS_V0.9.8\EXAMPLES\MATH\PARTICLESEXAMPLE\SRC\OFAPP.CPP
C:\USERS\DJINX\DESKTOP\OPENFRAMEWORKS_V0.9.8\EXAMPLES\MATH\PARTICLESEXAMPLE\OBJ\DEBUG\VC140.PDB
^C:\USERS\DJINX\DESKTOP\OPENFRAMEWORKS_V0.9.8\EXAMPLES\MATH\PARTICLESEXAMPLE\SRC\DEMOPARTICLE.CPP
C:\USERS\DJINX\DESKTOP\OPENFRAMEWORKS_V0.9.8\EXAMPLES\MATH\PARTICLESEXAMPLE\OBJ\DEBUG\VC140.PDB
