^C:\USERS\DJINX\DESKTOP\OPENFRAMEWORKS_V0.9.8\EXAMPLES\MATH\PARTICLESEXAMPLE\OBJ\DEBUG\DEMOPARTICLE.OBJ|C:\USERS\DJINX\DESKTOP\OPENFRAMEWORKS_V0.9.8\EXAMPLES\MATH\PARTICLESEXAMPLE\OBJ\DEBUG\ICON.RES|C:\USERS\DJINX\DESKTOP\OPENFRAMEWORKS_V0.9.8\EXAMPLES\MATH\PARTICLESEXAMPLE\OBJ\DEBUG\MAIN.OBJ|C:\USERS\DJINX\DESKTOP\OPENFRAMEWORKS_V0.9.8\EXAMPLES\MATH\PARTICLESEXAMPLE\OBJ\DEBUG\OFAPP.OBJ|C:\USERS\DJINX\DESKTOP\OPENFRAMEWORKS_V0.9.8\LIBS\OPENFRAMEWORKSCOMPILED\LIB\VS\WIN32\OPENFRAMEWORKSLIB_DEBUG.LIB
C:\USERS\DJINX\DESKTOP\OPENFRAMEWORKS_V0.9.8\EXAMPLES\MATH\PARTICLESEXAMPLE\BIN\PARTICLESEXAMPLE_DEBUG.ILK
C:\USERS\DJINX\DESKTOP\OPENFRAMEWORKS_V0.9.8\EXAMPLES\MATH\PARTICLESEXAMPLE\BIN\PARTICLESEXAMPLE_DEBUG.EXE
C:\USERS\DJINX\DESKTOP\OPENFRAMEWORKS_V0.9.8\EXAMPLES\MATH\PARTICLESEXAMPLE\BIN\PARTICLESEXAMPLE_DEBUG.PDB
