^C:\Users\Djinx\Desktop\OpenFrameworks_v0.9.8\examples\math\particlesExample\particlesExample.vcxproj
C:\Users\Djinx\Desktop\OpenFrameworks_v0.9.8\examples\math\particlesExample\bin\particlesExample_debug.lib
C:\Users\Djinx\Desktop\OpenFrameworks_v0.9.8\examples\math\particlesExample\bin\particlesExample_debug.exp
