^C:\Users\User\Desktop\OpenFrameworks_v0.9.8\apps\myApps\Arcane\particlesExample.vcxproj
C:\Users\User\Desktop\OpenFrameworks_v0.9.8\apps\myApps\Arcane\bin\Arcane_debug.lib
C:\Users\User\Desktop\OpenFrameworks_v0.9.8\apps\myApps\Arcane\bin\Arcane_debug.exp
^C:\Users\User\Desktop\OpenFrameworks_v0.9.8\apps\myApps\Arcane\particlesExample.vcxproj
C:\Users\User\Desktop\OpenFrameworks_v0.9.8\apps\myApps\Arcane\bin\Arcane_debug.lib
C:\Users\User\Desktop\OpenFrameworks_v0.9.8\apps\myApps\Arcane\bin\Arcane_debug.exp
^C:\Users\User\Desktop\OpenFrameworks_v0.9.8\apps\myApps\Arcane\particlesExample.vcxproj
C:\Users\User\Desktop\OpenFrameworks_v0.9.8\apps\myApps\Arcane\bin\Arcane_debug.lib
C:\Users\User\Desktop\OpenFrameworks_v0.9.8\apps\myApps\Arcane\bin\Arcane_debug.exp
