^C:\USERS\USER\DESKTOP\OPENFRAMEWORKS_V0.9.8\APPS\MYAPPS\ARCANE\OBJ\DEBUG\DEMOPARTICLE.OBJ|C:\USERS\USER\DESKTOP\OPENFRAMEWORKS_V0.9.8\APPS\MYAPPS\ARCANE\OBJ\DEBUG\ICON.RES|C:\USERS\USER\DESKTOP\OPENFRAMEWORKS_V0.9.8\APPS\MYAPPS\ARCANE\OBJ\DEBUG\MAIN.OBJ|C:\USERS\USER\DESKTOP\OPENFRAMEWORKS_V0.9.8\APPS\MYAPPS\ARCANE\OBJ\DEBUG\OFAPP.OBJ|C:\USERS\USER\DESKTOP\OPENFRAMEWORKS_V0.9.8\LIBS\OPENFRAMEWORKSCOMPILED\LIB\VS\WIN32\OPENFRAMEWORKSLIB_DEBUG.LIB
C:\WINDOWS\GLOBALIZATION\SORTING\SORTDEFAULT.NLS
C:\USERS\USER\DESKTOP\OPENFRAMEWORKS_V0.9.8\LIBS\CAIRO\LIB\VS\WIN32\CAIRO-STATIC.LIB
C:\USERS\USER\DESKTOP\OPENFRAMEWORKS_V0.9.8\LIBS\CAIRO\LIB\VS\WIN32\PIXMAN-1.LIB
C:\USERS\USER\DESKTOP\OPENFRAMEWORKS_V0.9.8\LIBS\CAIRO\LIB\VS\WIN32\LIBPNG.LIB
C:\PROGRAM FILES (X86)\WINDOWS KITS\8.1\LIB\WINV6.3\UM\X86\MSIMG32.LIB
C:\PROGRAM FILES (X86)\WINDOWS KITS\8.1\LIB\WINV6.3\UM\X86\OPENGL32.LIB
C:\USERS\USER\DESKTOP\OPENFRAMEWORKS_V0.9.8\LIBS\GLU\LIB\VS\WIN32\GLU32.LIB
C:\PROGRAM FILES (X86)\WINDOWS KITS\8.1\LIB\WINV6.3\UM\X86\KERNEL32.LIB
C:\PROGRAM FILES (X86)\WINDOWS KITS\8.1\LIB\WINV6.3\UM\X86\SETUPAPI.LIB
C:\PROGRAM FILES (X86)\WINDOWS KITS\8.1\LIB\WINV6.3\UM\X86\VFW32.LIB
C:\PROGRAM FILES (X86)\WINDOWS KITS\8.1\LIB\WINV6.3\UM\X86\COMCTL32.LIB
C:\USERS\USER\DESKTOP\OPENFRAMEWORKS_V0.9.8\LIBS\GLUT\LIB\VS\WIN32\GLUT32.LIB
C:\USERS\USER\DESKTOP\OPENFRAMEWORKS_V0.9.8\LIBS\RTAUDIO\LIB\VS\WIN32\RTAUDIOD.LIB
C:\USERS\USER\DESKTOP\OPENFRAMEWORKS_V0.9.8\LIBS\VIDEOINPUT\LIB\VS\WIN32\VIDEOINPUTD.LIB
C:\USERS\USER\DESKTOP\OPENFRAMEWORKS_V0.9.8\LIBS\FREETYPE\LIB\VS\WIN32\LIBFREETYPE.LIB
C:\USERS\USER\DESKTOP\OPENFRAMEWORKS_V0.9.8\LIBS\FREEIMAGE\LIB\VS\WIN32\FREEIMAGE.LIB
C:\USERS\USER\DESKTOP\OPENFRAMEWORKS_V0.9.8\LIBS\QUICKTIME\LIB\VS\WIN32\QTMLCLIENT.LIB
C:\PROGRAM FILES (X86)\WINDOWS KITS\8.1\LIB\WINV6.3\UM\X86\DSOUND.LIB
C:\PROGRAM FILES (X86)\WINDOWS KITS\8.1\LIB\WINV6.3\UM\X86\USER32.LIB
C:\PROGRAM FILES (X86)\WINDOWS KITS\8.1\LIB\WINV6.3\UM\X86\GDI32.LIB
C:\PROGRAM FILES (X86)\WINDOWS KITS\8.1\LIB\WINV6.3\UM\X86\WINSPOOL.LIB
C:\PROGRAM FILES (X86)\WINDOWS KITS\8.1\LIB\WINV6.3\UM\X86\COMDLG32.LIB
C:\PROGRAM FILES (X86)\WINDOWS KITS\8.1\LIB\WINV6.3\UM\X86\ADVAPI32.LIB
C:\PROGRAM FILES (X86)\WINDOWS KITS\8.1\LIB\WINV6.3\UM\X86\SHELL32.LIB
C:\PROGRAM FILES (X86)\WINDOWS KITS\8.1\LIB\WINV6.3\UM\X86\OLE32.LIB
C:\PROGRAM FILES (X86)\WINDOWS KITS\8.1\LIB\WINV6.3\UM\X86\OLEAUT32.LIB
C:\PROGRAM FILES (X86)\WINDOWS KITS\8.1\LIB\WINV6.3\UM\X86\UUID.LIB
C:\USERS\USER\DESKTOP\OPENFRAMEWORKS_V0.9.8\LIBS\GLEW\LIB\VS\WIN32\GLEW32S.LIB
C:\USERS\USER\DESKTOP\OPENFRAMEWORKS_V0.9.8\LIBS\FMODEX\LIB\VS\WIN32\FMODEX_VC.LIB
C:\USERS\USER\DESKTOP\OPENFRAMEWORKS_V0.9.8\LIBS\OPENSSL\LIB\VS\WIN32\SSLEAY32MD.LIB
C:\USERS\USER\DESKTOP\OPENFRAMEWORKS_V0.9.8\LIBS\OPENSSL\LIB\VS\WIN32\LIBEAY32MD.LIB
C:\PROGRAM FILES (X86)\WINDOWS KITS\8.1\LIB\WINV6.3\UM\X86\CRYPT32.LIB
C:\USERS\USER\DESKTOP\OPENFRAMEWORKS_V0.9.8\LIBS\POCO\LIB\VS\WIN32\POCOFOUNDATIONMDD.LIB
C:\USERS\USER\DESKTOP\OPENFRAMEWORKS_V0.9.8\LIBS\POCO\LIB\VS\WIN32\POCONETMDD.LIB
C:\USERS\USER\DESKTOP\OPENFRAMEWORKS_V0.9.8\LIBS\POCO\LIB\VS\WIN32\POCOUTILMDD.LIB
C:\USERS\USER\DESKTOP\OPENFRAMEWORKS_V0.9.8\LIBS\POCO\LIB\VS\WIN32\POCOXMLMDD.LIB
C:\PROGRAM FILES (X86)\WINDOWS KITS\8.1\LIB\WINV6.3\UM\X86\WS2_32.LIB
C:\USERS\USER\DESKTOP\OPENFRAMEWORKS_V0.9.8\LIBS\TESS2\LIB\VS\WIN32\TESS2.LIB
C:\USERS\USER\DESKTOP\OPENFRAMEWORKS_V0.9.8\LIBS\GLFW\LIB\VS\WIN32\GLFW3.LIB
C:\PROGRAM FILES (X86)\WINDOWS KITS\8.1\LIB\WINV6.3\UM\X86\WINMM.LIB
C:\PROGRAM FILES (X86)\WINDOWS KITS\8.1\LIB\WINV6.3\UM\X86\ODBC32.LIB
C:\PROGRAM FILES (X86)\WINDOWS KITS\8.1\LIB\WINV6.3\UM\X86\ODBCCP32.LIB
C:\USERS\USER\DESKTOP\OPENFRAMEWORKS_V0.9.8\APPS\MYAPPS\ARCANE\OBJ\DEBUG\ICON.RES
C:\USERS\USER\DESKTOP\OPENFRAMEWORKS_V0.9.8\APPS\MYAPPS\ARCANE\OBJ\DEBUG\MAIN.OBJ
C:\USERS\USER\DESKTOP\OPENFRAMEWORKS_V0.9.8\APPS\MYAPPS\ARCANE\OBJ\DEBUG\OFAPP.OBJ
C:\USERS\USER\DESKTOP\OPENFRAMEWORKS_V0.9.8\APPS\MYAPPS\ARCANE\OBJ\DEBUG\DEMOPARTICLE.OBJ
C:\USERS\USER\DESKTOP\OPENFRAMEWORKS_V0.9.8\LIBS\OPENFRAMEWORKSCOMPILED\LIB\VS\WIN32\OPENFRAMEWORKSLIB_DEBUG.LIB
C:\WINDOWS\SYSTEM32\TZRES.DLL
C:\PROGRAM FILES (X86)\MICROSOFT VISUAL STUDIO 14.0\VC\LIB\MSVCPRTD.LIB
C:\USERS\USER\DESKTOP\OPENFRAMEWORKS_V0.9.8\LIBS\BOOST\LIB\VS\WIN32\LIBBOOST_FILESYSTEM-VC140-MT-GD-1_58.LIB
C:\USERS\USER\DESKTOP\OPENFRAMEWORKS_V0.9.8\LIBS\BOOST\LIB\VS\WIN32\LIBBOOST_SYSTEM-VC140-MT-GD-1_58.LIB
C:\PROGRAM FILES (X86)\WINDOWS KITS\8.1\LIB\WINV6.3\UM\X86\STRMIIDS.LIB
C:\PROGRAM FILES (X86)\MICROSOFT VISUAL STUDIO 14.0\VC\LIB\MSVCRTD.LIB
C:\PROGRAM FILES (X86)\MICROSOFT VISUAL STUDIO 14.0\VC\LIB\OLDNAMES.LIB
C:\USERS\USER\DESKTOP\OPENFRAMEWORKS_V0.9.8\LIBS\POCO\LIB\VS\WIN32\POCONETSSLMDD.LIB
C:\USERS\USER\DESKTOP\OPENFRAMEWORKS_V0.9.8\LIBS\POCO\LIB\VS\WIN32\POCOCRYPTOMDD.LIB
C:\PROGRAM FILES (X86)\MICROSOFT VISUAL STUDIO 14.0\VC\LIB\VCRUNTIMED.LIB
C:\PROGRAM FILES (X86)\WINDOWS KITS\10\LIB\10.0.10240.0\UCRT\X86\UCRTD.LIB
C:\USERS\USER\DESKTOP\OPENFRAMEWORKS_V0.9.8\LIBS\POCO\LIB\VS\WIN32\POCOJSONMDD.LIB
C:\PROGRAM FILES (X86)\MICROSOFT VISUAL STUDIO 14.0\VC\BIN\LINK.EXE
C:\WINDOWS\SYSTEM32\RSAENH.DLL
C:\PROGRAM FILES (X86)\MICROSOFT VISUAL STUDIO 14.0\VC\BIN\1033\LINKUI.DLL
C:\PROGRAM FILES (X86)\WINDOWS KITS\8.1\BIN\X86\RC.EXE
C:\PROGRAM FILES (X86)\MICROSOFT VISUAL STUDIO 14.0\VC\BIN\CVTRES.EXE
