^C:\USERS\DJINX\DESKTOP\OPENFRAMEWORKS_V0.9.8\APPS\MYAPPS\ARCANE\ICON.RC
/D _UNICODE /D UNICODE /l"0x0409" /IC:\USERS\DJINX\DESKTOP\OPENFRAMEWORKS_V0.9.8\LIBS\OPENFRAMEWORKSCOMPILED\PROJECT\VS\\..\..\..\..\\LIBS\OPENFRAMEWORKSCOMPILED\PROJECT\VS /nologo /fo"OBJ\DEBUG\ICON.RES" /D_DEBUG    C:\USERS\DJINX\DESKTOP\OPENFRAMEWORKS_V0.9.8\APPS\MYAPPS\ARCANE\ICON.RC
^C:\USERS\USER\DESKTOP\OPENFRAMEWORKS_V0.9.8\APPS\MYAPPS\ARCANE\ICON.RC
/D _UNICODE /D UNICODE /l"0x0409" /IC:\USERS\USER\DESKTOP\OPENFRAMEWORKS_V0.9.8\LIBS\OPENFRAMEWORKSCOMPILED\PROJECT\VS\\..\..\..\..\\LIBS\OPENFRAMEWORKSCOMPILED\PROJECT\VS /nologo /fo"OBJ\DEBUG\ICON.RES" /D_DEBUG    C:\USERS\USER\DESKTOP\OPENFRAMEWORKS_V0.9.8\APPS\MYAPPS\ARCANE\ICON.RC
