^C:\USERS\DJINX\DESKTOP\OPENFRAMEWORKS_V0.9.8\APPS\MYAPPS\ARCANENEW\SRC\DEMOPARTICLE.CPP|C:\USERS\DJINX\DESKTOP\OPENFRAMEWORKS_V0.9.8\APPS\MYAPPS\ARCANENEW\SRC\MAIN.CPP|C:\USERS\DJINX\DESKTOP\OPENFRAMEWORKS_V0.9.8\APPS\MYAPPS\ARCANENEW\SRC\OFAPP.CPP
C:\USERS\DJINX\DESKTOP\OPENFRAMEWORKS_V0.9.8\APPS\MYAPPS\ARCANENEW\OBJ\RELEASE\MAIN.OBJ
C:\USERS\DJINX\DESKTOP\OPENFRAMEWORKS_V0.9.8\APPS\MYAPPS\ARCANENEW\OBJ\RELEASE\OFAPP.OBJ
C:\USERS\DJINX\DESKTOP\OPENFRAMEWORKS_V0.9.8\APPS\MYAPPS\ARCANENEW\OBJ\RELEASE\DEMOPARTICLE.OBJ
^C:\USERS\DJINX\DESKTOP\OPENFRAMEWORKS_V0.9.8\APPS\MYAPPS\ARCANENEW\SRC\DEMOPARTICLE.CPP
C:\USERS\DJINX\DESKTOP\OPENFRAMEWORKS_V0.9.8\APPS\MYAPPS\ARCANENEW\OBJ\RELEASE\VC140.PDB
^C:\USERS\DJINX\DESKTOP\OPENFRAMEWORKS_V0.9.8\APPS\MYAPPS\ARCANENEW\SRC\MAIN.CPP|C:\USERS\DJINX\DESKTOP\OPENFRAMEWORKS_V0.9.8\APPS\MYAPPS\ARCANENEW\SRC\OFAPP.CPP
C:\USERS\DJINX\DESKTOP\OPENFRAMEWORKS_V0.9.8\APPS\MYAPPS\ARCANENEW\OBJ\RELEASE\OFAPP.OBJ
C:\USERS\DJINX\DESKTOP\OPENFRAMEWORKS_V0.9.8\APPS\MYAPPS\ARCANENEW\OBJ\RELEASE\MAIN.OBJ
^C:\USERS\DJINX\DESKTOP\OPENFRAMEWORKS_V0.9.8\APPS\MYAPPS\ARCANENEW\SRC\MAIN.CPP
C:\USERS\DJINX\DESKTOP\OPENFRAMEWORKS_V0.9.8\APPS\MYAPPS\ARCANENEW\OBJ\RELEASE\VC140.PDB
^C:\USERS\DJINX\DESKTOP\OPENFRAMEWORKS_V0.9.8\APPS\MYAPPS\ARCANENEW\SRC\OFAPP.CPP
C:\USERS\DJINX\DESKTOP\OPENFRAMEWORKS_V0.9.8\APPS\MYAPPS\ARCANENEW\OBJ\RELEASE\VC140.PDB
C:\USERS\DJINX\DESKTOP\OPENFRAMEWORKS_V0.9.8\APPS\MYAPPS\ARCANENEW\OBJ\RELEASE\OFAPP.OBJ
